\relax 
\providecommand{\transparent@use}[1]{}
\providecommand\hyper@newdestlabel[2]{}
\catcode `"\active 
\providecommand\HyperFirstAtBeginDocument{\AtBeginDocument}
\HyperFirstAtBeginDocument{\ifx\hyper@anchor\@undefined
\global\let\oldcontentsline\contentsline
\gdef\contentsline#1#2#3#4{\oldcontentsline{#1}{#2}{#3}}
\global\let\oldnewlabel\newlabel
\gdef\newlabel#1#2{\newlabelxx{#1}#2}
\gdef\newlabelxx#1#2#3#4#5#6{\oldnewlabel{#1}{{#2}{#3}}}
\AtEndDocument{\ifx\hyper@anchor\@undefined
\let\contentsline\oldcontentsline
\let\newlabel\oldnewlabel
\fi}
\fi}
\global\let\hyper@last\relax 
\gdef\HyperFirstAtBeginDocument#1{#1}
\providecommand\HyField@AuxAddToFields[1]{}
\providecommand\HyField@AuxAddToCoFields[2]{}
\babel@aux{polish}{}
\@writefile{toc}{\contentsline {part}{\numberline {I\relax .\leavevmode@ifvmode \kern .5em }Projekt}{2}{part.1}\protected@file@percent }
\@writefile{toc}{\contentsline {chapter}{\numberline {1\relax .\leavevmode@ifvmode \kern .5em }Opis zadania}{3}{chapter.1}\protected@file@percent }
\@writefile{lof}{\addvspace {10\p@ }}
\@writefile{lot}{\addvspace {10\p@ }}
\@writefile{toc}{\contentsline {part}{\numberline {II\relax .\leavevmode@ifvmode \kern .5em }Liczba przedmiot\'ow r\'owna 32}{4}{part.2}\protected@file@percent }
\@writefile{toc}{\contentsline {chapter}{\numberline {2\relax .\leavevmode@ifvmode \kern .5em }Uzyskane wyniki podczas rozwi\k azywania problemu plecakowego}{5}{chapter.2}\protected@file@percent }
\@writefile{lof}{\addvspace {10\p@ }}
\@writefile{lot}{\addvspace {10\p@ }}
\newlabel{tab:addlabel}{{2}{5}{}{chapter.2}{}}
\newlabel{tab:addlabel@cref}{{[chapter][2][]2}{[1][5][]5}}
\newlabel{tab:addlabel}{{2}{5}{}{chapter.2}{}}
\newlabel{tab:addlabel@cref}{{[chapter][2][]2}{[1][5][]5}}
\@writefile{toc}{\contentsline {section}{\numberline {2.1\relax .\leavevmode@ifvmode \kern .5em }Zachowanie algorytmu dla domy\'slnych ustawie\'n algorytmu \textit  {ga} w programie matlab}{5}{section.2.1}\protected@file@percent }
\@writefile{lot}{\contentsline {table}{\numberline {2.1.}{\ignorespaces U\.zyte parametru w algorytmie \newline  \newline  elite count - liczba okre\'slaj\k aca osobniki, kt\'ore maj\k a gwarancj\k e przetrwania do nast\k epnej generacji}}{5}{table.2.1}\protected@file@percent }
\newlabel{tab:addlabel}{{2.1}{5}{Użyte parametru w algorytmie \newline \newline elite count - liczba określająca osobniki, które mają gwarancję przetrwania do następnej generacji}{table.2.1}{}}
\newlabel{tab:addlabel@cref}{{[table][1][2]2.1}{[1][5][]5}}
\@writefile{lof}{\contentsline {figure}{\numberline {2.1.}{\ignorespaces Wykres minimalnych warto\'sci funkcji celu}}{6}{figure.2.1}\protected@file@percent }
\@writefile{lof}{\contentsline {figure}{\numberline {2.2.}{\ignorespaces Wykres maksymalnych warto\'sci funkcji celu}}{6}{figure.2.2}\protected@file@percent }
\@writefile{lof}{\contentsline {figure}{\numberline {2.3.}{\ignorespaces Wykres \'srednich warto\'sci funkcji celu}}{7}{figure.2.3}\protected@file@percent }
\@writefile{lof}{\contentsline {figure}{\numberline {2.4.}{\ignorespaces Wykres wszystkich warto\'sci funkcji celu}}{7}{figure.2.4}\protected@file@percent }
\@writefile{lof}{\contentsline {figure}{\numberline {2.5.}{\ignorespaces Wykres wariancji warto\'sci funkcji celu}}{8}{figure.2.5}\protected@file@percent }
\@writefile{lot}{\contentsline {table}{\numberline {2.2.}{\ignorespaces 0 - zostawiamy przedmiot poza plecakiem \newline  1 - pakujemy przedmiot do plecaka}}{9}{table.2.2}\protected@file@percent }
\newlabel{tabela_naj_32}{{2.2}{9}{0 - zostawiamy przedmiot poza plecakiem \newline 1 - pakujemy przedmiot do plecaka}{table.2.2}{}}
\newlabel{tabela_naj_32@cref}{{[table][2][2]2.2}{[1][9][]9}}
\@writefile{toc}{\contentsline {section}{\numberline {2.2\relax .\leavevmode@ifvmode \kern .5em }Wp\IeC {\l }yw zmniejszanie liczby populacji}{9}{section.2.2}\protected@file@percent }
\@writefile{lot}{\contentsline {table}{\numberline {2.3.}{\ignorespaces U\.zyte parametru w algorytmie}}{9}{table.2.3}\protected@file@percent }
\newlabel{tab:addlabel}{{2.3}{9}{Użyte parametru w algorytmie}{table.2.3}{}}
\newlabel{tab:addlabel@cref}{{[table][3][2]2.3}{[1][9][]9}}
\@writefile{lot}{\contentsline {table}{\numberline {2.4.}{\ignorespaces Wyniki uzyskane podczas dzia\IeC {\l }ania algorytmu}}{9}{table.2.4}\protected@file@percent }
\newlabel{tab:addlabel}{{2.4}{9}{Wyniki uzyskane podczas działania algorytmu}{table.2.4}{}}
\newlabel{tab:addlabel@cref}{{[table][4][2]2.4}{[1][9][]9}}
\@writefile{lof}{\contentsline {figure}{\numberline {2.6.}{\ignorespaces Wykres minimalnych warto\'sci funkcji celu}}{10}{figure.2.6}\protected@file@percent }
\@writefile{lof}{\contentsline {figure}{\numberline {2.7.}{\ignorespaces Wykres maksymalnych warto\'sci funkcji celu}}{10}{figure.2.7}\protected@file@percent }
\@writefile{lof}{\contentsline {figure}{\numberline {2.8.}{\ignorespaces Wykres \'srednich warto\'sci funkcji celu}}{11}{figure.2.8}\protected@file@percent }
\@writefile{lof}{\contentsline {figure}{\numberline {2.9.}{\ignorespaces Wykres wszystkich warto\'sci funkcji celu}}{11}{figure.2.9}\protected@file@percent }
\@writefile{lof}{\contentsline {figure}{\numberline {2.10.}{\ignorespaces Wykres wariancji warto\'sci funkcji celu}}{12}{figure.2.10}\protected@file@percent }
\newlabel{tab:addlabel}{{2.2}{13}{}{figure.2.10}{}}
\newlabel{tab:addlabel@cref}{{[section][2][2]2.2}{[1][13][]13}}
\@writefile{lot}{\contentsline {table}{\numberline {2.5.}{\ignorespaces 0 - zostawiamy przedmiot poza plecakiem \newline  1 - pakujemy przedmiot do plecaka}}{13}{table.2.5}\protected@file@percent }
\newlabel{tab:addlabel}{{2.5}{13}{0 - zostawiamy przedmiot poza plecakiem \newline 1 - pakujemy przedmiot do plecaka}{table.2.5}{}}
\newlabel{tab:addlabel@cref}{{[table][5][2]2.5}{[1][13][]13}}
\@writefile{toc}{\contentsline {section}{\numberline {2.3\relax .\leavevmode@ifvmode \kern .5em }Wp\IeC {\l }yw zwi\k ekszenia liczby populacji}{13}{section.2.3}\protected@file@percent }
\@writefile{lot}{\contentsline {table}{\numberline {2.6.}{\ignorespaces U\.zyte parametru w algorytmie}}{13}{table.2.6}\protected@file@percent }
\newlabel{tab:addlabel}{{2.6}{13}{Użyte parametru w algorytmie}{table.2.6}{}}
\newlabel{tab:addlabel@cref}{{[table][6][2]2.6}{[1][13][]13}}
\@writefile{lot}{\contentsline {table}{\numberline {2.7.}{\ignorespaces Wyniki uzyskane podczas dzia\IeC {\l }ania algorytmu}}{13}{table.2.7}\protected@file@percent }
\newlabel{tab:addlabel}{{2.7}{13}{Wyniki uzyskane podczas działania algorytmu}{table.2.7}{}}
\newlabel{tab:addlabel@cref}{{[table][7][2]2.7}{[1][13][]13}}
\@writefile{lof}{\contentsline {figure}{\numberline {2.11.}{\ignorespaces Wykres minimalnych warto\'sci funkcji celu}}{14}{figure.2.11}\protected@file@percent }
\@writefile{lof}{\contentsline {figure}{\numberline {2.12.}{\ignorespaces Wykres maksymalnych warto\'sci funkcji celu}}{14}{figure.2.12}\protected@file@percent }
\@writefile{lof}{\contentsline {figure}{\numberline {2.13.}{\ignorespaces Wykres \'srednich warto\'sci funkcji celu}}{15}{figure.2.13}\protected@file@percent }
\@writefile{lof}{\contentsline {figure}{\numberline {2.14.}{\ignorespaces Wykres wszystkich warto\'sci funkcji celu}}{15}{figure.2.14}\protected@file@percent }
\@writefile{lof}{\contentsline {figure}{\numberline {2.15.}{\ignorespaces Wykres wariancji warto\'sci funkcji celu}}{16}{figure.2.15}\protected@file@percent }
\newlabel{tab:addlabel}{{2.3}{17}{}{figure.2.15}{}}
\newlabel{tab:addlabel@cref}{{[section][3][2]2.3}{[1][17][]17}}
\@writefile{lot}{\contentsline {table}{\numberline {2.8.}{\ignorespaces 0 - zostawiamy przedmiot poza plecakiem \newline  1 - pakujemy przedmiot do plecaka}}{17}{table.2.8}\protected@file@percent }
\newlabel{tab:addlabel}{{2.8}{17}{0 - zostawiamy przedmiot poza plecakiem \newline 1 - pakujemy przedmiot do plecaka}{table.2.8}{}}
\newlabel{tab:addlabel@cref}{{[table][8][2]2.8}{[1][17][]17}}
\@writefile{toc}{\contentsline {section}{\numberline {2.4\relax .\leavevmode@ifvmode \kern .5em }Zbadanie wp\IeC {\l }ywu warunku stopu na dzia\IeC {\l }anie algorytmu}{17}{section.2.4}\protected@file@percent }
\newlabel{warunki stopu}{{2.4}{17}{}{section.2.4}{}}
\newlabel{warunki stopu@cref}{{[section][4][2]2.4}{[1][17][]17}}
\@writefile{lot}{\contentsline {table}{\numberline {2.9.}{\ignorespaces Wyniki uzyskane podczas dzia\IeC {\l }ania algorytmu}}{17}{table.2.9}\protected@file@percent }
\newlabel{tab:addlabel}{{2.9}{17}{Wyniki uzyskane podczas działania algorytmu}{table.2.9}{}}
\newlabel{tab:addlabel@cref}{{[table][9][2]2.9}{[1][17][]17}}
\@writefile{lof}{\contentsline {figure}{\numberline {2.16.}{\ignorespaces Wykres minimalnych warto\'sci funkcji celu}}{18}{figure.2.16}\protected@file@percent }
\@writefile{lof}{\contentsline {figure}{\numberline {2.17.}{\ignorespaces Wykres maksymalnych warto\'sci funkcji celu}}{18}{figure.2.17}\protected@file@percent }
\@writefile{lof}{\contentsline {figure}{\numberline {2.18.}{\ignorespaces Wykres \'srednich warto\'sci funkcji celu}}{19}{figure.2.18}\protected@file@percent }
\@writefile{lof}{\contentsline {figure}{\numberline {2.19.}{\ignorespaces Wykres wszystkich warto\'sci funkcji celu}}{19}{figure.2.19}\protected@file@percent }
\@writefile{lof}{\contentsline {figure}{\numberline {2.20.}{\ignorespaces Wykres wariancji warto\'sci funkcji celu}}{20}{figure.2.20}\protected@file@percent }
\@writefile{lot}{\contentsline {table}{\numberline {2.10.}{\ignorespaces 0 - zostawiamy przedmiot poza plecakiem \newline  1 - pakujemy przedmiot do plecaka}}{21}{table.2.10}\protected@file@percent }
\newlabel{tabela_naj_32}{{2.10}{21}{0 - zostawiamy przedmiot poza plecakiem \newline 1 - pakujemy przedmiot do plecaka}{table.2.10}{}}
\newlabel{tabela_naj_32@cref}{{[table][10][2]2.10}{[1][21][]21}}
\@writefile{toc}{\contentsline {section}{\numberline {2.5\relax .\leavevmode@ifvmode \kern .5em }Badanie wp\IeC {\l }ywu parametr\'ow odpowiadaj\k acych za reprodukcj\k e na dzia\IeC {\l }anie algorytmu}{21}{section.2.5}\protected@file@percent }
\@writefile{toc}{\contentsline {subsection}{\numberline {2.5.1\relax .\leavevmode@ifvmode \kern .5em }Uzyskane wyniki dla parametru $\textit  {elite count} = 2$}{21}{subsection.2.5.1}\protected@file@percent }
\newlabel{e_32_2}{{2.5.1}{21}{}{subsection.2.5.1}{}}
\newlabel{e_32_2@cref}{{[subsection][1][2,5]2.5.1}{[1][21][]21}}
\@writefile{lot}{\contentsline {table}{\numberline {2.11.}{\ignorespaces U\.zyte parametry w algorytmie}}{21}{table.2.11}\protected@file@percent }
\newlabel{tab:addlabel}{{2.11}{21}{Użyte parametry w algorytmie}{table.2.11}{}}
\newlabel{tab:addlabel@cref}{{[table][11][2]2.11}{[1][21][]21}}
\@writefile{lot}{\contentsline {table}{\numberline {2.12.}{\ignorespaces Wyniki uzyskane podczas dzia\IeC {\l }ania algorytmu}}{21}{table.2.12}\protected@file@percent }
\newlabel{tab:addlabel}{{2.12}{21}{Wyniki uzyskane podczas działania algorytmu}{table.2.12}{}}
\newlabel{tab:addlabel@cref}{{[table][12][2]2.12}{[1][21][]21}}
\@writefile{lof}{\contentsline {figure}{\numberline {2.21.}{\ignorespaces Wykres minimalnych warto\'sci funkcji celu}}{22}{figure.2.21}\protected@file@percent }
\@writefile{lof}{\contentsline {figure}{\numberline {2.22.}{\ignorespaces Wykres maksymalnych warto\'sci funkcji celu}}{22}{figure.2.22}\protected@file@percent }
\@writefile{lof}{\contentsline {figure}{\numberline {2.23.}{\ignorespaces Wykres \'srednich warto\'sci funkcji celu}}{23}{figure.2.23}\protected@file@percent }
\@writefile{lof}{\contentsline {figure}{\numberline {2.24.}{\ignorespaces Wykres wszystkich warto\'sci funkcji celu}}{23}{figure.2.24}\protected@file@percent }
\@writefile{lof}{\contentsline {figure}{\numberline {2.25.}{\ignorespaces Wykres wariancji warto\'sci funkcji celu}}{24}{figure.2.25}\protected@file@percent }
\@writefile{toc}{\contentsline {subsection}{\numberline {2.5.2\relax .\leavevmode@ifvmode \kern .5em }Uzyskane wyniki dla parametru $\textit  {elite count} = 10$}{25}{subsection.2.5.2}\protected@file@percent }
\newlabel{e_32_10}{{2.5.2}{25}{}{subsection.2.5.2}{}}
\newlabel{e_32_10@cref}{{[subsection][2][2,5]2.5.2}{[1][25][]25}}
\@writefile{lot}{\contentsline {table}{\numberline {2.13.}{\ignorespaces U\.zyte parametry w algorytmie}}{25}{table.2.13}\protected@file@percent }
\newlabel{tab:addlabel}{{2.13}{25}{Użyte parametry w algorytmie}{table.2.13}{}}
\newlabel{tab:addlabel@cref}{{[table][13][2]2.13}{[1][25][]25}}
\@writefile{lot}{\contentsline {table}{\numberline {2.14.}{\ignorespaces Wyniki uzyskane podczas dzia\IeC {\l }ania algorytmu}}{25}{table.2.14}\protected@file@percent }
\newlabel{tab:addlabel}{{2.14}{25}{Wyniki uzyskane podczas działania algorytmu}{table.2.14}{}}
\newlabel{tab:addlabel@cref}{{[table][14][2]2.14}{[1][25][]25}}
\@writefile{lof}{\contentsline {figure}{\numberline {2.26.}{\ignorespaces Wykres minimalnych warto\'sci funkcji celu}}{25}{figure.2.26}\protected@file@percent }
\@writefile{lof}{\contentsline {figure}{\numberline {2.27.}{\ignorespaces Wykres maksymalnych warto\'sci funkcji celu}}{26}{figure.2.27}\protected@file@percent }
\@writefile{lof}{\contentsline {figure}{\numberline {2.28.}{\ignorespaces Wykres \'srednich warto\'sci funkcji celu}}{26}{figure.2.28}\protected@file@percent }
\@writefile{lof}{\contentsline {figure}{\numberline {2.29.}{\ignorespaces Wykres wszystkich warto\'sci funkcji celu}}{27}{figure.2.29}\protected@file@percent }
\@writefile{lof}{\contentsline {figure}{\numberline {2.30.}{\ignorespaces Wykres wariancji warto\'sci funkcji celu}}{27}{figure.2.30}\protected@file@percent }
\@writefile{toc}{\contentsline {subsection}{\numberline {2.5.3\relax .\leavevmode@ifvmode \kern .5em }Uzyskane wyniki dla parametru $\textit  {elite count} = 15$}{28}{subsection.2.5.3}\protected@file@percent }
\newlabel{e_32_15}{{2.5.3}{28}{}{subsection.2.5.3}{}}
\newlabel{e_32_15@cref}{{[subsection][3][2,5]2.5.3}{[1][28][]28}}
\@writefile{lot}{\contentsline {table}{\numberline {2.15.}{\ignorespaces U\.zyte parametry w algorytmie}}{28}{table.2.15}\protected@file@percent }
\newlabel{tab:addlabel}{{2.15}{28}{Użyte parametry w algorytmie}{table.2.15}{}}
\newlabel{tab:addlabel@cref}{{[table][15][2]2.15}{[1][28][]28}}
\@writefile{lot}{\contentsline {table}{\numberline {2.16.}{\ignorespaces Wyniki uzyskane podczas dzia\IeC {\l }ania algorytmu}}{28}{table.2.16}\protected@file@percent }
\newlabel{tab:addlabel}{{2.16}{28}{Wyniki uzyskane podczas działania algorytmu}{table.2.16}{}}
\newlabel{tab:addlabel@cref}{{[table][16][2]2.16}{[1][28][]28}}
\@writefile{lof}{\contentsline {figure}{\numberline {2.31.}{\ignorespaces Wykres minimalnych warto\'sci funkcji celu}}{28}{figure.2.31}\protected@file@percent }
\@writefile{lof}{\contentsline {figure}{\numberline {2.32.}{\ignorespaces Wykres maksymalnych warto\'sci funkcji celu}}{29}{figure.2.32}\protected@file@percent }
\@writefile{lof}{\contentsline {figure}{\numberline {2.33.}{\ignorespaces Wykres \'srednich warto\'sci funkcji celu}}{29}{figure.2.33}\protected@file@percent }
\@writefile{lof}{\contentsline {figure}{\numberline {2.34.}{\ignorespaces Wykres wszystkich warto\'sci funkcji celu}}{30}{figure.2.34}\protected@file@percent }
\@writefile{lof}{\contentsline {figure}{\numberline {2.35.}{\ignorespaces Wykres wariancji warto\'sci funkcji celu}}{30}{figure.2.35}\protected@file@percent }
\@writefile{toc}{\contentsline {subsection}{\numberline {2.5.4\relax .\leavevmode@ifvmode \kern .5em }Wnioski po zbadaniu wp\IeC {\l }ywu parametru \textit  {elite count}}{31}{subsection.2.5.4}\protected@file@percent }
\@writefile{toc}{\contentsline {subsection}{\numberline {2.5.5\relax .\leavevmode@ifvmode \kern .5em }Zmiana parametru \textit  {crossover fraction} na warto\'s\'c 0.3}{31}{subsection.2.5.5}\protected@file@percent }
\newlabel{e_32_frac}{{2.5.5}{31}{}{subsection.2.5.5}{}}
\newlabel{e_32_frac@cref}{{[subsection][5][2,5]2.5.5}{[1][31][]31}}
\@writefile{lot}{\contentsline {table}{\numberline {2.17.}{\ignorespaces U\.zyte parametry w algorytmie}}{31}{table.2.17}\protected@file@percent }
\newlabel{tab:addlabel}{{2.17}{31}{Użyte parametry w algorytmie}{table.2.17}{}}
\newlabel{tab:addlabel@cref}{{[table][17][2]2.17}{[1][31][]31}}
\@writefile{lot}{\contentsline {table}{\numberline {2.18.}{\ignorespaces Wyniki uzyskane podczas dzia\IeC {\l }ania algorytmu}}{31}{table.2.18}\protected@file@percent }
\newlabel{tab:addlabel}{{2.18}{31}{Wyniki uzyskane podczas działania algorytmu}{table.2.18}{}}
\newlabel{tab:addlabel@cref}{{[table][18][2]2.18}{[1][31][]31}}
\@writefile{lof}{\contentsline {figure}{\numberline {2.36.}{\ignorespaces Wykres minimalnych warto\'sci funkcji celu}}{31}{figure.2.36}\protected@file@percent }
\@writefile{lof}{\contentsline {figure}{\numberline {2.37.}{\ignorespaces Wykres maksymalnych warto\'sci funkcji celu}}{32}{figure.2.37}\protected@file@percent }
\@writefile{lof}{\contentsline {figure}{\numberline {2.38.}{\ignorespaces Wykres \'srednich warto\'sci funkcji celu}}{32}{figure.2.38}\protected@file@percent }
\@writefile{lof}{\contentsline {figure}{\numberline {2.39.}{\ignorespaces Wykres wszystkich warto\'sci funkcji celu}}{33}{figure.2.39}\protected@file@percent }
\@writefile{lof}{\contentsline {figure}{\numberline {2.40.}{\ignorespaces Wykres wariancji warto\'sci funkcji celu}}{33}{figure.2.40}\protected@file@percent }
\@writefile{toc}{\contentsline {section}{\numberline {2.6\relax .\leavevmode@ifvmode \kern .5em }Badanie wp\IeC {\l }ywu zmiany algorytm\'ow mutacji na otrzymywane rozwi\k azanie}{34}{section.2.6}\protected@file@percent }
\@writefile{toc}{\contentsline {subsection}{\numberline {2.6.1\relax .\leavevmode@ifvmode \kern .5em }Zmiana parametr\'ow w funkcji gaussa u\.zywanej podczas mutacji}{34}{subsection.2.6.1}\protected@file@percent }
\@writefile{lot}{\contentsline {table}{\numberline {2.19.}{\ignorespaces U\.zyte parametry w algorytmie}}{34}{table.2.19}\protected@file@percent }
\newlabel{tab:addlabel}{{2.19}{34}{Użyte parametry w algorytmie}{table.2.19}{}}
\newlabel{tab:addlabel@cref}{{[table][19][2]2.19}{[1][34][]34}}
\@writefile{lot}{\contentsline {table}{\numberline {2.20.}{\ignorespaces Wyniki uzyskane podczas dzia\IeC {\l }ania algorytmu}}{34}{table.2.20}\protected@file@percent }
\newlabel{tab:addlabel}{{2.20}{34}{Wyniki uzyskane podczas działania algorytmu}{table.2.20}{}}
\newlabel{tab:addlabel@cref}{{[table][20][2]2.20}{[1][34][]34}}
\@writefile{lof}{\contentsline {figure}{\numberline {2.41.}{\ignorespaces Wykres minimalnych warto\'sci funkcji celu}}{34}{figure.2.41}\protected@file@percent }
\@writefile{lof}{\contentsline {figure}{\numberline {2.42.}{\ignorespaces Wykres maksymalnych warto\'sci funkcji celu}}{35}{figure.2.42}\protected@file@percent }
\@writefile{lof}{\contentsline {figure}{\numberline {2.43.}{\ignorespaces Wykres \'srednich warto\'sci funkcji celu}}{35}{figure.2.43}\protected@file@percent }
\@writefile{lof}{\contentsline {figure}{\numberline {2.44.}{\ignorespaces Wykres wszystkich warto\'sci funkcji celu}}{36}{figure.2.44}\protected@file@percent }
\@writefile{lof}{\contentsline {figure}{\numberline {2.45.}{\ignorespaces Wykres wariancji warto\'sci funkcji celu}}{36}{figure.2.45}\protected@file@percent }
\@writefile{lot}{\contentsline {table}{\numberline {2.21.}{\ignorespaces U\.zyte parametry w algorytmie}}{37}{table.2.21}\protected@file@percent }
\newlabel{tab:addlabel}{{2.21}{37}{Użyte parametry w algorytmie}{table.2.21}{}}
\newlabel{tab:addlabel@cref}{{[table][21][2]2.21}{[1][37][]37}}
\@writefile{lot}{\contentsline {table}{\numberline {2.22.}{\ignorespaces Wyniki uzyskane podczas dzia\IeC {\l }ania algorytmu}}{37}{table.2.22}\protected@file@percent }
\newlabel{tab:addlabel}{{2.22}{37}{Wyniki uzyskane podczas działania algorytmu}{table.2.22}{}}
\newlabel{tab:addlabel@cref}{{[table][22][2]2.22}{[1][37][]37}}
\@writefile{lof}{\contentsline {figure}{\numberline {2.46.}{\ignorespaces Wykres minimalnych warto\'sci funkcji celu}}{37}{figure.2.46}\protected@file@percent }
\@writefile{lof}{\contentsline {figure}{\numberline {2.47.}{\ignorespaces Wykres maksymalnych warto\'sci funkcji celu}}{38}{figure.2.47}\protected@file@percent }
\@writefile{lof}{\contentsline {figure}{\numberline {2.48.}{\ignorespaces Wykres \'srednich warto\'sci funkcji celu}}{38}{figure.2.48}\protected@file@percent }
\@writefile{lof}{\contentsline {figure}{\numberline {2.49.}{\ignorespaces Wykres wszystkich warto\'sci funkcji celu}}{39}{figure.2.49}\protected@file@percent }
\@writefile{lof}{\contentsline {figure}{\numberline {2.50.}{\ignorespaces Wykres wariancji warto\'sci funkcji celu}}{39}{figure.2.50}\protected@file@percent }
\@writefile{toc}{\contentsline {part}{\numberline {III\relax .\leavevmode@ifvmode \kern .5em }Liczba przedmiot\'ow r\'owna 64}{41}{part.3}\protected@file@percent }
\@writefile{toc}{\contentsline {section}{\numberline {2.7\relax .\leavevmode@ifvmode \kern .5em }Przyj\k ete za\IeC {\l }o\.zenia podczas rozwi\k azania problemu plecakowego dla 64 przedmiot\'ow}{42}{section.2.7}\protected@file@percent }
\@writefile{toc}{\contentsline {section}{\numberline {2.8\relax .\leavevmode@ifvmode \kern .5em }Wykaz przedmiot\'ow dla kt\'orych szukamy rozwi\k azania problemu plecakowego}{42}{section.2.8}\protected@file@percent }
\newlabel{tab:addlabel}{{2.8}{42}{}{section.2.8}{}}
\newlabel{tab:addlabel@cref}{{[section][8][2]2.8}{[1][42][]42}}
\@writefile{toc}{\contentsline {section}{\numberline {2.9\relax .\leavevmode@ifvmode \kern .5em }Zachowanie algorytmu dla domy\'slnych ustawie\'n algorytmu \textit  {ga} w programie matlab}{43}{section.2.9}\protected@file@percent }
\@writefile{lot}{\contentsline {table}{\numberline {2.23.}{\ignorespaces U\.zyte parametru w algorytmie}}{43}{table.2.23}\protected@file@percent }
\newlabel{tab:addlabel}{{2.23}{43}{Użyte parametru w algorytmie}{table.2.23}{}}
\newlabel{tab:addlabel@cref}{{[table][23][2]2.23}{[1][43][]43}}
\@writefile{lof}{\contentsline {figure}{\numberline {2.51.}{\ignorespaces Wykres minimalnych warto\'sci funkcji celu}}{43}{figure.2.51}\protected@file@percent }
\@writefile{lof}{\contentsline {figure}{\numberline {2.52.}{\ignorespaces Wykres maksymalnych warto\'sci funkcji celu}}{44}{figure.2.52}\protected@file@percent }
\@writefile{lof}{\contentsline {figure}{\numberline {2.53.}{\ignorespaces Wykres \'srednich warto\'sci funkcji celu}}{44}{figure.2.53}\protected@file@percent }
\@writefile{lof}{\contentsline {figure}{\numberline {2.54.}{\ignorespaces Wykres wszystkich warto\'sci funkcji celu}}{45}{figure.2.54}\protected@file@percent }
\@writefile{lof}{\contentsline {figure}{\numberline {2.55.}{\ignorespaces Wykres wariancji warto\'sci funkcji celu}}{45}{figure.2.55}\protected@file@percent }
\newlabel{tab:addlabel}{{2.9}{46}{}{figure.2.55}{}}
\newlabel{tab:addlabel@cref}{{[section][9][2]2.9}{[1][46][]46}}
\newlabel{tab:addlabel}{{2.9}{46}{}{figure.2.55}{}}
\newlabel{tab:addlabel@cref}{{[section][9][2]2.9}{[1][46][]46}}
\@writefile{lot}{\contentsline {table}{\numberline {2.24.}{\ignorespaces 0 - zostawiamy przedmiot poza plecakiem \newline  1 - pakujemy przedmiot do plecaka}}{46}{table.2.24}\protected@file@percent }
\newlabel{tabela_naj_64}{{2.24}{46}{0 - zostawiamy przedmiot poza plecakiem \newline 1 - pakujemy przedmiot do plecaka}{table.2.24}{}}
\newlabel{tabela_naj_64@cref}{{[table][24][2]2.24}{[1][46][]46}}
\@writefile{toc}{\contentsline {section}{\numberline {2.10\relax .\leavevmode@ifvmode \kern .5em }Wp\IeC {\l }yw zmniejszanie liczby populacji}{46}{section.2.10}\protected@file@percent }
\@writefile{lot}{\contentsline {table}{\numberline {2.25.}{\ignorespaces U\.zyte parametru w algorytmie}}{46}{table.2.25}\protected@file@percent }
\newlabel{tab:addlabel}{{2.25}{46}{Użyte parametru w algorytmie}{table.2.25}{}}
\newlabel{tab:addlabel@cref}{{[table][25][2]2.25}{[1][46][]46}}
\@writefile{lot}{\contentsline {table}{\numberline {2.26.}{\ignorespaces Wyniki uzyskane podczas dzia\IeC {\l }ania algorytmu}}{46}{table.2.26}\protected@file@percent }
\newlabel{tab:addlabel}{{2.26}{46}{Wyniki uzyskane podczas działania algorytmu}{table.2.26}{}}
\newlabel{tab:addlabel@cref}{{[table][26][2]2.26}{[1][46][]46}}
\@writefile{lof}{\contentsline {figure}{\numberline {2.56.}{\ignorespaces Wykres minimalnych warto\'sci funkcji celu}}{47}{figure.2.56}\protected@file@percent }
\@writefile{lof}{\contentsline {figure}{\numberline {2.57.}{\ignorespaces Wykres maksymalnych warto\'sci funkcji celu}}{47}{figure.2.57}\protected@file@percent }
\@writefile{lof}{\contentsline {figure}{\numberline {2.58.}{\ignorespaces Wykres \'srednich warto\'sci funkcji celu}}{48}{figure.2.58}\protected@file@percent }
\@writefile{lof}{\contentsline {figure}{\numberline {2.59.}{\ignorespaces Wykres wszystkich warto\'sci funkcji celu}}{48}{figure.2.59}\protected@file@percent }
\@writefile{lof}{\contentsline {figure}{\numberline {2.60.}{\ignorespaces Wykres wariancji warto\'sci funkcji celu}}{49}{figure.2.60}\protected@file@percent }
\newlabel{tab:addlabel}{{2.10}{50}{}{figure.2.60}{}}
\newlabel{tab:addlabel@cref}{{[section][10][2]2.10}{[1][50][]50}}
\newlabel{tab:addlabel}{{2.10}{50}{}{figure.2.60}{}}
\newlabel{tab:addlabel@cref}{{[section][10][2]2.10}{[1][50][]50}}
\newlabel{tab:addlabel}{{2.10}{50}{}{figure.2.60}{}}
\newlabel{tab:addlabel@cref}{{[section][10][2]2.10}{[1][50][]50}}
\@writefile{lot}{\contentsline {table}{\numberline {2.27.}{\ignorespaces 0 - zostawiamy przedmiot poza plecakiem \newline  1 - pakujemy przedmiot do plecaka}}{50}{table.2.27}\protected@file@percent }
\newlabel{tab:addlabel}{{2.27}{50}{0 - zostawiamy przedmiot poza plecakiem \newline 1 - pakujemy przedmiot do plecaka}{table.2.27}{}}
\newlabel{tab:addlabel@cref}{{[table][27][2]2.27}{[1][50][]50}}
\@writefile{toc}{\contentsline {section}{\numberline {2.11\relax .\leavevmode@ifvmode \kern .5em }Wp\IeC {\l }yw zwi\k ekszenia liczby populacji}{50}{section.2.11}\protected@file@percent }
\@writefile{lot}{\contentsline {table}{\numberline {2.28.}{\ignorespaces U\.zyte parametru w algorytmie}}{50}{table.2.28}\protected@file@percent }
\newlabel{tab:addlabel}{{2.28}{50}{Użyte parametru w algorytmie}{table.2.28}{}}
\newlabel{tab:addlabel@cref}{{[table][28][2]2.28}{[1][50][]50}}
\@writefile{lot}{\contentsline {table}{\numberline {2.29.}{\ignorespaces Wyniki uzyskane podczas dzia\IeC {\l }ania algorytmu}}{50}{table.2.29}\protected@file@percent }
\newlabel{tab:addlabel}{{2.29}{50}{Wyniki uzyskane podczas działania algorytmu}{table.2.29}{}}
\newlabel{tab:addlabel@cref}{{[table][29][2]2.29}{[1][50][]50}}
\@writefile{lof}{\contentsline {figure}{\numberline {2.61.}{\ignorespaces Wykres minimalnych warto\'sci funkcji celu}}{51}{figure.2.61}\protected@file@percent }
\@writefile{lof}{\contentsline {figure}{\numberline {2.62.}{\ignorespaces Wykres maksymalnych warto\'sci funkcji celu}}{51}{figure.2.62}\protected@file@percent }
\@writefile{lof}{\contentsline {figure}{\numberline {2.63.}{\ignorespaces Wykres \'srednich warto\'sci funkcji celu}}{52}{figure.2.63}\protected@file@percent }
\@writefile{lof}{\contentsline {figure}{\numberline {2.64.}{\ignorespaces Wykres wszystkich warto\'sci funkcji celu}}{52}{figure.2.64}\protected@file@percent }
\@writefile{lof}{\contentsline {figure}{\numberline {2.65.}{\ignorespaces Wykres wariancji warto\'sci funkcji celu}}{53}{figure.2.65}\protected@file@percent }
\newlabel{tab:addlabel}{{2.11}{54}{}{figure.2.65}{}}
\newlabel{tab:addlabel@cref}{{[section][11][2]2.11}{[1][54][]54}}
\newlabel{tab:addlabel}{{2.11}{54}{}{figure.2.65}{}}
\newlabel{tab:addlabel@cref}{{[section][11][2]2.11}{[1][54][]54}}
\newlabel{tab:addlabel}{{2.11}{54}{}{figure.2.65}{}}
\newlabel{tab:addlabel@cref}{{[section][11][2]2.11}{[1][54][]54}}
\@writefile{lot}{\contentsline {table}{\numberline {2.30.}{\ignorespaces 0 - zostawiamy przedmiot poza plecakiem \newline  1 - pakujemy przedmiot do plecaka}}{54}{table.2.30}\protected@file@percent }
\newlabel{tab:addlabel}{{2.30}{54}{0 - zostawiamy przedmiot poza plecakiem \newline 1 - pakujemy przedmiot do plecaka}{table.2.30}{}}
\newlabel{tab:addlabel@cref}{{[table][30][2]2.30}{[1][54][]54}}
\@writefile{toc}{\contentsline {section}{\numberline {2.12\relax .\leavevmode@ifvmode \kern .5em }Zbadanie wp\IeC {\l }ywu warunku stopu na dzia\IeC {\l }anie algorytmu}{54}{section.2.12}\protected@file@percent }
\@writefile{lot}{\contentsline {table}{\numberline {2.31.}{\ignorespaces Wyniki uzyskane podczas dzia\IeC {\l }ania algorytmu}}{54}{table.2.31}\protected@file@percent }
\newlabel{tab:addlabel}{{2.31}{54}{Wyniki uzyskane podczas działania algorytmu}{table.2.31}{}}
\newlabel{tab:addlabel@cref}{{[table][31][2]2.31}{[1][54][]54}}
\@writefile{lof}{\contentsline {figure}{\numberline {2.66.}{\ignorespaces Wykres minimalnych warto\'sci funkcji celu}}{55}{figure.2.66}\protected@file@percent }
\@writefile{lof}{\contentsline {figure}{\numberline {2.67.}{\ignorespaces Wykres maksymalnych warto\'sci funkcji celu}}{55}{figure.2.67}\protected@file@percent }
\@writefile{lof}{\contentsline {figure}{\numberline {2.68.}{\ignorespaces Wykres \'srednich warto\'sci funkcji celu}}{56}{figure.2.68}\protected@file@percent }
\@writefile{lof}{\contentsline {figure}{\numberline {2.69.}{\ignorespaces Wykres wszystkich warto\'sci funkcji celu}}{56}{figure.2.69}\protected@file@percent }
\@writefile{lof}{\contentsline {figure}{\numberline {2.70.}{\ignorespaces Wykres wariancji warto\'sci funkcji celu}}{57}{figure.2.70}\protected@file@percent }
\@writefile{toc}{\contentsline {section}{\numberline {2.13\relax .\leavevmode@ifvmode \kern .5em }Badanie wp\IeC {\l }ywu parametr\'ow odpowiadaj\k acych za reprodukcj\k e na dzia\IeC {\l }anie algorytmu}{58}{section.2.13}\protected@file@percent }
\@writefile{toc}{\contentsline {subsection}{\numberline {2.13.1\relax .\leavevmode@ifvmode \kern .5em }Uzyskane wyniki dla parametru $\textit  {elite count} = 2$}{58}{subsection.2.13.1}\protected@file@percent }
\newlabel{e_64_2}{{2.13.1}{58}{}{subsection.2.13.1}{}}
\newlabel{e_64_2@cref}{{[subsection][1][2,13]2.13.1}{[1][58][]58}}
\@writefile{lot}{\contentsline {table}{\numberline {2.32.}{\ignorespaces U\.zyte parametry w algorytmie}}{58}{table.2.32}\protected@file@percent }
\newlabel{tab:addlabel}{{2.32}{58}{Użyte parametry w algorytmie}{table.2.32}{}}
\newlabel{tab:addlabel@cref}{{[table][32][2]2.32}{[1][58][]58}}
\@writefile{lot}{\contentsline {table}{\numberline {2.33.}{\ignorespaces Wyniki uzyskane podczas dzia\IeC {\l }ania algorytmu}}{58}{table.2.33}\protected@file@percent }
\newlabel{tab:addlabel}{{2.33}{58}{Wyniki uzyskane podczas działania algorytmu}{table.2.33}{}}
\newlabel{tab:addlabel@cref}{{[table][33][2]2.33}{[1][58][]58}}
\@writefile{lof}{\contentsline {figure}{\numberline {2.71.}{\ignorespaces Wykres minimalnych warto\'sci funkcji celu}}{58}{figure.2.71}\protected@file@percent }
\@writefile{lof}{\contentsline {figure}{\numberline {2.72.}{\ignorespaces Wykres maksymalnych warto\'sci funkcji celu}}{59}{figure.2.72}\protected@file@percent }
\@writefile{lof}{\contentsline {figure}{\numberline {2.73.}{\ignorespaces Wykres \'srednich warto\'sci funkcji celu}}{59}{figure.2.73}\protected@file@percent }
\@writefile{lof}{\contentsline {figure}{\numberline {2.74.}{\ignorespaces Wykres wszystkich warto\'sci funkcji celu}}{60}{figure.2.74}\protected@file@percent }
\@writefile{lof}{\contentsline {figure}{\numberline {2.75.}{\ignorespaces Wykres wariancji warto\'sci funkcji celu}}{60}{figure.2.75}\protected@file@percent }
\@writefile{toc}{\contentsline {subsection}{\numberline {2.13.2\relax .\leavevmode@ifvmode \kern .5em }Uzyskane wyniki dla parametru $\textit  {elite count} = 10$}{61}{subsection.2.13.2}\protected@file@percent }
\newlabel{e_64_10}{{2.13.2}{61}{}{subsection.2.13.2}{}}
\newlabel{e_64_10@cref}{{[subsection][2][2,13]2.13.2}{[1][61][]61}}
\@writefile{lot}{\contentsline {table}{\numberline {2.34.}{\ignorespaces U\.zyte parametry w algorytmie}}{61}{table.2.34}\protected@file@percent }
\newlabel{tab:addlabel}{{2.34}{61}{Użyte parametry w algorytmie}{table.2.34}{}}
\newlabel{tab:addlabel@cref}{{[table][34][2]2.34}{[1][61][]61}}
\@writefile{lot}{\contentsline {table}{\numberline {2.35.}{\ignorespaces Wyniki uzyskane podczas dzia\IeC {\l }ania algorytmu}}{61}{table.2.35}\protected@file@percent }
\newlabel{tab:addlabel}{{2.35}{61}{Wyniki uzyskane podczas działania algorytmu}{table.2.35}{}}
\newlabel{tab:addlabel@cref}{{[table][35][2]2.35}{[1][61][]61}}
\@writefile{lof}{\contentsline {figure}{\numberline {2.76.}{\ignorespaces Wykres minimalnych warto\'sci funkcji celu}}{61}{figure.2.76}\protected@file@percent }
\@writefile{lof}{\contentsline {figure}{\numberline {2.77.}{\ignorespaces Wykres maksymalnych warto\'sci funkcji celu}}{62}{figure.2.77}\protected@file@percent }
\@writefile{lof}{\contentsline {figure}{\numberline {2.78.}{\ignorespaces Wykres \'srednich warto\'sci funkcji celu}}{62}{figure.2.78}\protected@file@percent }
\@writefile{lof}{\contentsline {figure}{\numberline {2.79.}{\ignorespaces Wykres wszystkich warto\'sci funkcji celu}}{63}{figure.2.79}\protected@file@percent }
\@writefile{lof}{\contentsline {figure}{\numberline {2.80.}{\ignorespaces Wykres wariancji warto\'sci funkcji celu}}{63}{figure.2.80}\protected@file@percent }
\@writefile{toc}{\contentsline {subsection}{\numberline {2.13.3\relax .\leavevmode@ifvmode \kern .5em }Uzyskane wyniki dla parametru $\textit  {elite count} = 15$}{64}{subsection.2.13.3}\protected@file@percent }
\newlabel{e_64_15}{{2.13.3}{64}{}{subsection.2.13.3}{}}
\newlabel{e_64_15@cref}{{[subsection][3][2,13]2.13.3}{[1][64][]64}}
\@writefile{lot}{\contentsline {table}{\numberline {2.36.}{\ignorespaces U\.zyte parametry w algorytmie}}{64}{table.2.36}\protected@file@percent }
\newlabel{tab:addlabel}{{2.36}{64}{Użyte parametry w algorytmie}{table.2.36}{}}
\newlabel{tab:addlabel@cref}{{[table][36][2]2.36}{[1][64][]64}}
\@writefile{lot}{\contentsline {table}{\numberline {2.37.}{\ignorespaces Wyniki uzyskane podczas dzia\IeC {\l }ania algorytmu}}{64}{table.2.37}\protected@file@percent }
\newlabel{tab:addlabel}{{2.37}{64}{Wyniki uzyskane podczas działania algorytmu}{table.2.37}{}}
\newlabel{tab:addlabel@cref}{{[table][37][2]2.37}{[1][64][]64}}
\@writefile{lof}{\contentsline {figure}{\numberline {2.81.}{\ignorespaces Wykres minimalnych warto\'sci funkcji celu}}{64}{figure.2.81}\protected@file@percent }
\@writefile{lof}{\contentsline {figure}{\numberline {2.82.}{\ignorespaces Wykres maksymalnych warto\'sci funkcji celu}}{65}{figure.2.82}\protected@file@percent }
\@writefile{lof}{\contentsline {figure}{\numberline {2.83.}{\ignorespaces Wykres \'srednich warto\'sci funkcji celu}}{65}{figure.2.83}\protected@file@percent }
\@writefile{lof}{\contentsline {figure}{\numberline {2.84.}{\ignorespaces Wykres wszystkich warto\'sci funkcji celu}}{66}{figure.2.84}\protected@file@percent }
\@writefile{lof}{\contentsline {figure}{\numberline {2.85.}{\ignorespaces Wykres wariancji warto\'sci funkcji celu}}{66}{figure.2.85}\protected@file@percent }
\@writefile{toc}{\contentsline {subsection}{\numberline {2.13.4\relax .\leavevmode@ifvmode \kern .5em }Wnioski po zbadaniu wp\IeC {\l }ywu parametru \textit  {elite count}}{67}{subsection.2.13.4}\protected@file@percent }
\@writefile{toc}{\contentsline {subsection}{\numberline {2.13.5\relax .\leavevmode@ifvmode \kern .5em }Zmiana parametru \textit  {crossover fraction} na warto\'s\'c 0.3}{67}{subsection.2.13.5}\protected@file@percent }
\newlabel{e_64_frac}{{2.13.5}{67}{}{subsection.2.13.5}{}}
\newlabel{e_64_frac@cref}{{[subsection][5][2,13]2.13.5}{[1][67][]67}}
\@writefile{lot}{\contentsline {table}{\numberline {2.38.}{\ignorespaces U\.zyte parametry w algorytmie}}{67}{table.2.38}\protected@file@percent }
\newlabel{tab:addlabel}{{2.38}{67}{Użyte parametry w algorytmie}{table.2.38}{}}
\newlabel{tab:addlabel@cref}{{[table][38][2]2.38}{[1][67][]67}}
\@writefile{lot}{\contentsline {table}{\numberline {2.39.}{\ignorespaces Wyniki uzyskane podczas dzia\IeC {\l }ania algorytmu}}{67}{table.2.39}\protected@file@percent }
\newlabel{tab:addlabel}{{2.39}{67}{Wyniki uzyskane podczas działania algorytmu}{table.2.39}{}}
\newlabel{tab:addlabel@cref}{{[table][39][2]2.39}{[1][67][]67}}
\@writefile{lof}{\contentsline {figure}{\numberline {2.86.}{\ignorespaces Wykres minimalnych warto\'sci funkcji celu}}{67}{figure.2.86}\protected@file@percent }
\@writefile{lof}{\contentsline {figure}{\numberline {2.87.}{\ignorespaces Wykres maksymalnych warto\'sci funkcji celu}}{68}{figure.2.87}\protected@file@percent }
\@writefile{lof}{\contentsline {figure}{\numberline {2.88.}{\ignorespaces Wykres \'srednich warto\'sci funkcji celu}}{68}{figure.2.88}\protected@file@percent }
\@writefile{lof}{\contentsline {figure}{\numberline {2.89.}{\ignorespaces Wykres wszystkich warto\'sci funkcji celu}}{69}{figure.2.89}\protected@file@percent }
\@writefile{lof}{\contentsline {figure}{\numberline {2.90.}{\ignorespaces Wykres wariancji warto\'sci funkcji celu}}{69}{figure.2.90}\protected@file@percent }
\@writefile{toc}{\contentsline {section}{\numberline {2.14\relax .\leavevmode@ifvmode \kern .5em }Badanie wp\IeC {\l }ywu zmiany algorytm\'ow mutacji na otrzymywane rozwi\k azanie}{70}{section.2.14}\protected@file@percent }
\@writefile{toc}{\contentsline {subsection}{\numberline {2.14.1\relax .\leavevmode@ifvmode \kern .5em }Zmiana parametr\'ow w funkcji gaussa u\.zywanej podczas mutacji}{70}{subsection.2.14.1}\protected@file@percent }
\@writefile{lot}{\contentsline {table}{\numberline {2.40.}{\ignorespaces U\.zyte parametry w algorytmie}}{70}{table.2.40}\protected@file@percent }
\newlabel{tab:addlabel}{{2.40}{70}{Użyte parametry w algorytmie}{table.2.40}{}}
\newlabel{tab:addlabel@cref}{{[table][40][2]2.40}{[1][70][]70}}
\@writefile{lot}{\contentsline {table}{\numberline {2.41.}{\ignorespaces Wyniki uzyskane podczas dzia\IeC {\l }ania algorytmu}}{70}{table.2.41}\protected@file@percent }
\newlabel{tab:addlabel}{{2.41}{70}{Wyniki uzyskane podczas działania algorytmu}{table.2.41}{}}
\newlabel{tab:addlabel@cref}{{[table][41][2]2.41}{[1][70][]70}}
\@writefile{lof}{\contentsline {figure}{\numberline {2.91.}{\ignorespaces Wykres minimalnych warto\'sci funkcji celu}}{70}{figure.2.91}\protected@file@percent }
\@writefile{lof}{\contentsline {figure}{\numberline {2.92.}{\ignorespaces Wykres maksymalnych warto\'sci funkcji celu}}{71}{figure.2.92}\protected@file@percent }
\@writefile{lof}{\contentsline {figure}{\numberline {2.93.}{\ignorespaces Wykres \'srednich warto\'sci funkcji celu}}{71}{figure.2.93}\protected@file@percent }
\@writefile{lof}{\contentsline {figure}{\numberline {2.94.}{\ignorespaces Wykres wszystkich warto\'sci funkcji celu}}{72}{figure.2.94}\protected@file@percent }
\@writefile{lof}{\contentsline {figure}{\numberline {2.95.}{\ignorespaces Wykres wariancji warto\'sci funkcji celu}}{72}{figure.2.95}\protected@file@percent }
\@writefile{lot}{\contentsline {table}{\numberline {2.42.}{\ignorespaces U\.zyte parametry w algorytmie}}{73}{table.2.42}\protected@file@percent }
\newlabel{tab:addlabel}{{2.42}{73}{Użyte parametry w algorytmie}{table.2.42}{}}
\newlabel{tab:addlabel@cref}{{[table][42][2]2.42}{[1][73][]73}}
\@writefile{lot}{\contentsline {table}{\numberline {2.43.}{\ignorespaces Wyniki uzyskane podczas dzia\IeC {\l }ania algorytmu}}{73}{table.2.43}\protected@file@percent }
\newlabel{tab:addlabel}{{2.43}{73}{Wyniki uzyskane podczas działania algorytmu}{table.2.43}{}}
\newlabel{tab:addlabel@cref}{{[table][43][2]2.43}{[1][73][]73}}
\@writefile{lof}{\contentsline {figure}{\numberline {2.96.}{\ignorespaces Wykres minimalnych warto\'sci funkcji celu}}{73}{figure.2.96}\protected@file@percent }
\@writefile{lof}{\contentsline {figure}{\numberline {2.97.}{\ignorespaces Wykres maksymalnych warto\'sci funkcji celu}}{74}{figure.2.97}\protected@file@percent }
\@writefile{lof}{\contentsline {figure}{\numberline {2.98.}{\ignorespaces Wykres \'srednich warto\'sci funkcji celu}}{74}{figure.2.98}\protected@file@percent }
\@writefile{lof}{\contentsline {figure}{\numberline {2.99.}{\ignorespaces Wykres wszystkich warto\'sci funkcji celu}}{75}{figure.2.99}\protected@file@percent }
\@writefile{lof}{\contentsline {figure}{\numberline {2.100.}{\ignorespaces Wykres wariancji warto\'sci funkcji celu}}{75}{figure.2.100}\protected@file@percent }
\@writefile{toc}{\contentsline {chapter}{\numberline {3\relax .\leavevmode@ifvmode \kern .5em }Podsumowanie}{77}{chapter.3}\protected@file@percent }
\@writefile{lof}{\addvspace {10\p@ }}
\@writefile{lot}{\addvspace {10\p@ }}
\@writefile{toc}{\contentsline {section}{\numberline {3.1\relax .\leavevmode@ifvmode \kern .5em }Prezentacja wykazu przedmiot\'ow dla poszczeg\'olnych eksperyment\'ow}{77}{section.3.1}\protected@file@percent }
\@writefile{lot}{\contentsline {table}{\numberline {3.1.}{\ignorespaces Wykaz przedmiot\'ow dla \ref  {e_32_2}}}{78}{table.3.1}\protected@file@percent }
\newlabel{tab:addlabel}{{3.1}{78}{Wykaz przedmiotów dla \ref {e_32_2}}{table.3.1}{}}
\newlabel{tab:addlabel@cref}{{[table][1][3]3.1}{[1][78][]78}}
\@writefile{lot}{\contentsline {table}{\numberline {3.2.}{\ignorespaces Wykaz przedmiot\'ow dla \ref  {e_32_10}}}{78}{table.3.2}\protected@file@percent }
\newlabel{tab:addlabel}{{3.2}{78}{Wykaz przedmiotów dla \ref {e_32_10}}{table.3.2}{}}
\newlabel{tab:addlabel@cref}{{[table][2][3]3.2}{[1][78][]78}}
\@writefile{lot}{\contentsline {table}{\numberline {3.3.}{\ignorespaces Wykaz przedmiot\'ow dla \ref  {e_32_15}}}{78}{table.3.3}\protected@file@percent }
\newlabel{tab:addlabel}{{3.3}{78}{Wykaz przedmiotów dla \ref {e_32_15}}{table.3.3}{}}
\newlabel{tab:addlabel@cref}{{[table][3][3]3.3}{[1][78][]78}}
\@writefile{lot}{\contentsline {table}{\numberline {3.4.}{\ignorespaces Wykaz przedmiot\'ow dla \ref  {e_64_2}}}{79}{table.3.4}\protected@file@percent }
\newlabel{tab:addlabel}{{3.4}{79}{Wykaz przedmiotów dla \ref {e_64_2}}{table.3.4}{}}
\newlabel{tab:addlabel@cref}{{[table][4][3]3.4}{[1][79][]79}}
\@writefile{lot}{\contentsline {table}{\numberline {3.5.}{\ignorespaces Wykaz przedmiot\'ow dla \ref  {e_64_10}}}{79}{table.3.5}\protected@file@percent }
\newlabel{tab:addlabel}{{3.5}{79}{Wykaz przedmiotów dla \ref {e_64_10}}{table.3.5}{}}
\newlabel{tab:addlabel@cref}{{[table][5][3]3.5}{[1][79][]79}}
\@writefile{lot}{\contentsline {table}{\numberline {3.6.}{\ignorespaces Wykaz przedmiot\'ow dla \ref  {e_64_15}}}{79}{table.3.6}\protected@file@percent }
\newlabel{tab:addlabel}{{3.6}{79}{Wykaz przedmiotów dla \ref {e_64_15}}{table.3.6}{}}
\newlabel{tab:addlabel@cref}{{[table][6][3]3.6}{[1][79][]79}}
\@writefile{lot}{\contentsline {table}{\numberline {3.7.}{\ignorespaces Wykaz przedmiot\'ow dla \ref  {e_32_frac}}}{80}{table.3.7}\protected@file@percent }
\newlabel{tab:addlabel}{{3.7}{80}{Wykaz przedmiotów dla \ref {e_32_frac}}{table.3.7}{}}
\newlabel{tab:addlabel@cref}{{[table][7][3]3.7}{[1][80][]80}}
\@writefile{lot}{\contentsline {table}{\numberline {3.8.}{\ignorespaces Wykaz przedmiot\'ow dla \ref  {e_64_frac}}}{80}{table.3.8}\protected@file@percent }
\newlabel{tab:addlabel}{{3.8}{80}{Wykaz przedmiotów dla \ref {e_64_frac}}{table.3.8}{}}
\newlabel{tab:addlabel@cref}{{[table][8][3]3.8}{[1][80][]80}}
